Project 1: Exploratory Data Analysis
…
fj <- full_join(cars, housefires, by = c(Year = "Year"))
view(fj)

The common variable is ‘year’, with only one observation per year, per column. Additionally both datasets contain similar numeric categories with only one categorical variable present, making a full_join the easiest and most appropriate way to merge data. This keeps all columns and rows present which we will need for future graphs and comparisons. No cases needed to be dropped since data was already tidy/ no NAs.

filtered <- fj %>% filter(Property_Damage >= 7, Deaths.y <= 4000, 
    Year > 1990) %>% head()
# Creating a new dataframe ‘filtered’ that creates an output
# only if all criteria is met through the filtered settings

*property damage is greater than or equal to seven billion, while house fire deaths (.y) are less than or equal to 4000 people, and the year must be greater than 1990.

fj %>% select_if(is.numeric) %>% select_if(~mean(.) > 3500)

## # A tibble: 59 x 3
##    Deaths.x Crashes Deaths.y
##       <dbl>   <dbl>    <dbl>
##  1    36399   31399     5545
##  2    36285   31600     6340
##  3    38980   33010     6400
##  4    41723   33477     5890
##  5    45645   35203     5995
##  6    47089   35482     6685
##  7    50894   34886     6700
##  8    50724   35220     5225
##  9    50725   36967     6185
## 10    53543   36093     5200
## # … with 49 more rows
…
housefires %>% group_by(Prevalent_Cause) %>% 
summarise(avg_housedeaths = mean(Deaths), min_housedeaths = min(Deaths), 
    max_housedeaths = max(Deaths), quant_housedeaths = quantile(Deaths), 
    sd_housedeaths = sd(Deaths), var_housedeaths = var(Deaths), 
    ndis_housedeaths = n_distinct(Deaths), total = n())

## # A tibble: 25 x 9
## # Groups:   Prevalent_Cause [5]
##    Prevalent_Cause avg_housedeaths min_housedeaths max_housedeaths
##    <chr>                     <dbl>           <dbl>           <dbl>
##  1 children                  6057             4730            6700
##  2 children                  6057             4730            6700
##  3 children                  6057             4730            6700
##  4 children                  6057             4730            6700
##  5 children                  6057             4730            6700
##  6 cooking                   5228.            3275            7395
##  7 cooking                   5228.            3275            7395
##  8 cooking                   5228.            3275            7395
##  9 cooking                   5228.            3275            7395
## 10 cooking                   5228.            3275            7395
## # … with 15 more rows, and 5 more variables: quant_housedeaths <dbl>,
## #   sd_housedeaths <dbl>, var_housedeaths <dbl>, ndis_housedeaths <int>,
## #   total <int>

# Summary of house fire deaths grouped by the prevalent
# cause.

housefires$Category[housefires$Deaths >= 3500] = "High"
housefires$Category[housefires$Deaths < 3500] = "Low"
# Adds column 'Category' and assigns deaths greater than or
# equal to 3,500 as high and less than 3,500 as low

housefires %>% pivot_wider(names_from = Prevalent_Cause, values_from = Year, 
    values_fill = 0)

## # A tibble: 59 x 8
##    Property_Damage Deaths Category flammables cooking heating electrical
##              <dbl>  <dbl> <chr>         <dbl>   <dbl>   <dbl>      <dbl>
##  1             3.2   5545 High           1960       0       0          0
##  2             3     6340 High              0    1961       0          0
##  3             3.4   6400 High              0    1962       0          0
##  4             3.3   5890 High              0       0    1963          0
##  5             3.5   5995 High              0    1964       0          0
##  6             4     6685 High              0       0       0       1965
##  7             3.5   6700 High              0       0       0          0
##  8             3.6   5225 High           1967       0       0          0
##  9             3.8   6185 High              0    1968       0          0
## 10             4     5200 High              0    1969       0          0
## # … with 49 more rows, and 1 more variable: children <dbl>

# Increases number of columns by listing each prevalent house
# fire cause and assigning the years to them.

So if the most common type of house fire was from cooking in 1960, then 1960 would go under that category along with other years when cooking was the most prevalent.

cars$Category[cars$Crashes >= 35000] = "High"
cars$Category[cars$Crashes < 35000] = "Low"
# Categorizes the number of vehicle crashes into “High” if
# there are 35,000 or more and “Low” if there are fewer.

pivot_longer(cars, cols = c("Category"), names_to = "Death", 
    values_to = "Year", names_repair = "unique")

## # A tibble: 59 x 6
##    Year...1 Deaths Crashes Estimated_Drivers Death    Year...6
##       <dbl>  <dbl>   <dbl>             <dbl> <chr>    <chr>   
##  1     1960  36399   31399              88.9 Category Low     
##  2     1961  36285   31600              92   Category Low     
##  3     1962  38980   33010              93.7 Category Low     
##  4     1963  41723   33477              95.6 Category Low     
##  5     1964  45645   35203              99   Category High    
##  6     1965  47089   35482             101   Category High    
##  7     1966  50894   34886             103.  Category Low     
##  8     1967  50724   35220             105.  Category High    
##  9     1968  50725   36967             108.  Category High    
## 10     1969  53543   36093             112.  Category High    
## # … with 49 more rows
…
